…
### Exercise 6

UK and Germany are tied for the most common at 7 nobel prize winners who
were based in the US.

``` r
#filter out USA born from USA-based winners
nobel_living_science %>%
  filter(country_us == "USA" & born_country_us != "USA") %>%
  #count the countries remaining
  count(born_country) %>%
  arrange(desc(n))
```

    ## # A tibble: 21 × 2
    ##    born_country       n
    ##    <chr>          <int>
    ##  1 Germany            7
    ##  2 United Kingdom     7
    ##  3 China              5
    ##  4 Canada             4
    ##  5 Japan              3
    ##  6 Australia          2
    ##  7 Israel             2
    ##  8 Norway             2
    ##  9 Austria            1
    ## 10 Finland            1
    ## # … with 11 more rows
